1;1
2;2
3;2
4;2
5;2
6;2
7;2
8;2
9;2
10;5
11;6
12;6
13;7
14;8
15;8
16;9
17;9
18;9
19;10
20;10
21;11
22;11
23;14
24;15
25;16
26;16
27;18
28;18
29;18
30;22
31;22
32;23
33;23
34;24
35;24
36;24
37;25
38;25
39;25
40;30
41;30
42;31
43;31
44;31
45;32
46;32
47;32
48;32
49;33
50;33
51;33
52;35
53;38
54;39
55;39
56;39
57;39
58;41
59;41
61;41
62;41
63;41
64;41
65;41
66;41
60;42
67;42
68;42
69;42
70;42
71;42
72;42
73;42
74;42
75;42
76;42
77;42
78;43
79;43
80;43
81;43
82;43
83;43
84;43
85;43
86;43
87;43
88;43
89;43
90;43
91;43
92;43
93;43
94;43
95;43
96;43
97;43
98;44
99;44
100;44
101;44
102;44
103;44
104;44
105;45
106;45
107;45
108;45
109;45
110;45
111;45
112;45
113;45
114;45
148;49
149;49
115;50
116;50
117;50
118;50
119;50
120;50
121;50
122;50
123;50
124;53
125;53
126;53
127;53
128;53
129;53
130;53
131;54
132;54
133;54
134;55
135;55
136;55
137;55
138;55
139;56
140;57
141;57
142;57
143;57
144;58
145;58
146;58
147;58
150;60